\relax 
\providecommand\hyper@newdestlabel[2]{}
\catcode `"\active 
\providecommand\HyperFirstAtBeginDocument{\AtBeginDocument}
\HyperFirstAtBeginDocument{\ifx\hyper@anchor\@undefined
\global\let\oldcontentsline\contentsline
\gdef\contentsline#1#2#3#4{\oldcontentsline{#1}{#2}{#3}}
\global\let\oldnewlabel\newlabel
\gdef\newlabel#1#2{\newlabelxx{#1}#2}
\gdef\newlabelxx#1#2#3#4#5#6{\oldnewlabel{#1}{{#2}{#3}}}
\AtEndDocument{\ifx\hyper@anchor\@undefined
\let\contentsline\oldcontentsline
\let\newlabel\oldnewlabel
\fi}
\fi}
\global\let\hyper@last\relax 
\gdef\HyperFirstAtBeginDocument#1{#1}
\providecommand\HyField@AuxAddToFields[1]{}
\providecommand\HyField@AuxAddToCoFields[2]{}
\babel@aux{ngerman}{}
\@writefile{toc}{\contentsline {section}{Auftritte}{15}{section*.1}}
\@writefile{toc}{\contentsline {subsection}{2018-12-24\hskip 1em\relax Christvesper}{15}{subsection*.2}}
\@writefile{toc}{\contentsline {subsection}{2018-12-16\hskip 1em\relax W. A. Mozart: c-Moll Messe}{15}{subsection*.3}}
\@writefile{toc}{\contentsline {subsection}{2018-11-24\hskip 1em\relax Taufe von Johanna und Enno}{15}{subsection*.4}}
\@writefile{toc}{\contentsline {subsection}{2018-10-31\hskip 1em\relax Reformationsfeier}{15}{subsection*.5}}
\@writefile{toc}{\contentsline {subsection}{2018-10-07\hskip 1em\relax Gottesdienst zum 19. Sonntag nach Trinitatis}{15}{subsection*.6}}
\@writefile{toc}{\contentsline {subsection}{2018-06-16\hskip 1em\relax geerdet, Chor- und Orgelmusik}{15}{subsection*.7}}
\@writefile{toc}{\contentsline {subsection}{2018-04-30\hskip 1em\relax Konzert im Temple Neuf, Metz}{16}{subsection*.8}}
\@writefile{toc}{\contentsline {subsection}{2018-04-29\hskip 1em\relax Gottesdienst im Temple protestant de Nancy}{16}{subsection*.9}}
\@writefile{toc}{\contentsline {subsection}{2018-04-01\hskip 1em\relax Konzert in der Cath\IeC {\'e}drale Notre-Dame-de-l'Annonciation de Nancy}{16}{subsection*.10}}
\@writefile{toc}{\contentsline {subsection}{2018-03-30\hskip 1em\relax Gottesdienst zum Karfreitag}{16}{subsection*.11}}
\@writefile{toc}{\contentsline {subsection}{2018-01-06\hskip 1em\relax Er\IeC {\"o}ffnung der 21. Mannheimer Vesperkirche}{16}{subsection*.12}}
\@writefile{toc}{\contentsline {subsection}{2017-12-24\hskip 1em\relax Christvesper}{16}{subsection*.13}}
\@writefile{toc}{\contentsline {subsection}{2017-12-10\hskip 1em\relax J. S. Bach: h-Moll Messe}{16}{subsection*.14}}
\@writefile{toc}{\contentsline {subsection}{2017-12-03\hskip 1em\relax Gottesdienst zum 1. Advent}{16}{subsection*.15}}
\@writefile{toc}{\contentsline {subsection}{2017-10-31\hskip 1em\relax Reformationsfeier}{16}{subsection*.16}}
\@writefile{toc}{\contentsline {subsection}{2017-09-24\hskip 1em\relax Gottesdienst zum 15. Sonntag nach Trinitatis}{17}{subsection*.17}}
\@writefile{toc}{\contentsline {subsection}{2017-07-08\hskip 1em\relax \IeC {\"O}kumenischer Kirchentag}{17}{subsection*.18}}
\@writefile{toc}{\contentsline {subsection}{2017-07-01\hskip 1em\relax Chorfest Heidelberg}{17}{subsection*.19}}
\@writefile{toc}{\contentsline {subsection}{2017-04-14\hskip 1em\relax Gottesdienst zum Karfreitag}{17}{subsection*.20}}
\@writefile{toc}{\contentsline {subsection}{2017-01-06\hskip 1em\relax Er\IeC {\"o}ffnung der 20. Mannheimer Vesperkirche}{17}{subsection*.21}}
\@writefile{toc}{\contentsline {subsection}{2016-12-04\hskip 1em\relax J. S. Bach: Gloriakantate, Weihnachtsoratorium}{18}{subsection*.22}}
\@writefile{toc}{\contentsline {subsection}{2016-10-31\hskip 1em\relax Reformationsfeier}{18}{subsection*.23}}
\@writefile{toc}{\contentsline {subsection}{2016-10-16\hskip 1em\relax Taufe von Yara}{18}{subsection*.24}}
\@writefile{toc}{\contentsline {subsection}{2016-09-18\hskip 1em\relax Gottesdienst zum 17. Sonntag nach Trinitatis}{18}{subsection*.25}}
\@writefile{toc}{\contentsline {subsection}{2016-06-12\hskip 1em\relax Wenn Engel reisen}{18}{subsection*.26}}
\@writefile{toc}{\contentsline {subsection}{2016-06-12\hskip 1em\relax Gottesdienst zum 3. Sonntag nach Trinitatis}{19}{subsection*.27}}
\@writefile{toc}{\contentsline {subsection}{2016-05-07\hskip 1em\relax Wenn Engel reisen}{19}{subsection*.28}}
\@writefile{toc}{\contentsline {subsection}{2016-05-06\hskip 1em\relax Wenn Engel reisen}{19}{subsection*.29}}
\@writefile{toc}{\contentsline {subsection}{2016-03-25\hskip 1em\relax Fernsehgottesdienst zum Ostersonntag}{19}{subsection*.30}}
\@writefile{toc}{\contentsline {subsection}{2016-01-06\hskip 1em\relax Er\IeC {\"o}ffnung der 19. Mannheimer Vesperkirche}{19}{subsection*.31}}
\@writefile{toc}{\contentsline {subsection}{2015-12-24\hskip 1em\relax Christvesper}{19}{subsection*.32}}
\@writefile{toc}{\contentsline {subsection}{2015-12-23\hskip 1em\relax Weihnachtsliedersingen f\IeC {\"u}r die Fl\IeC {\"u}chtlinge}{19}{subsection*.33}}
\@writefile{toc}{\contentsline {subsection}{2015-11-29\hskip 1em\relax Gottesdienst zum 1. Advent}{19}{subsection*.34}}
\@writefile{toc}{\contentsline {subsection}{2015-11-22\hskip 1em\relax J. C. Bach, Requiem}{19}{subsection*.35}}
\@writefile{toc}{\contentsline {subsection}{2015-10-31\hskip 1em\relax Reformationsfeier}{20}{subsection*.36}}
\@writefile{toc}{\contentsline {subsection}{2015-07-11\hskip 1em\relax Sommer Nacht Musik}{20}{subsection*.37}}
\@writefile{toc}{\contentsline {subsection}{2015-06-28\hskip 1em\relax FriedensSeufzer}{20}{subsection*.38}}
\@writefile{toc}{\contentsline {subsection}{2015-04-03\hskip 1em\relax Gottesdienst zum Karfreitag}{20}{subsection*.39}}
\@writefile{toc}{\contentsline {subsection}{2015-02-08\hskip 1em\relax Verabschiedung von Peter Anweiler}{20}{subsection*.40}}
\@writefile{toc}{\contentsline {subsection}{2015-01-06\hskip 1em\relax Er\IeC {\"o}ffnung der 18. Mannheimer Vesperkirche}{20}{subsection*.41}}
\@writefile{toc}{\contentsline {subsection}{2014-12-24\hskip 1em\relax Christvesper}{20}{subsection*.42}}
\@writefile{toc}{\contentsline {subsection}{2014-12-22\hskip 1em\relax Singen in der LEA}{20}{subsection*.43}}
\@writefile{toc}{\contentsline {subsection}{2014-12-07\hskip 1em\relax L. Bernstein, Chichester Psalms}{21}{subsection*.44}}
\@writefile{toc}{\contentsline {subsection}{2014-11-30\hskip 1em\relax Gottesdienst zum 1. Advent}{21}{subsection*.45}}
\@writefile{toc}{\contentsline {subsection}{2014-10-31\hskip 1em\relax Reformationsfeier}{21}{subsection*.46}}
\@writefile{toc}{\contentsline {subsection}{2014-09-21\hskip 1em\relax Gottesdienst zum 14. Sonntag nach Trinitatis}{21}{subsection*.47}}
\@writefile{toc}{\contentsline {subsection}{2014-07-06\hskip 1em\relax Visitationsgottesdienst zum 3. Sonntag nach Trinitatis}{21}{subsection*.48}}
\@writefile{toc}{\contentsline {subsection}{2014-05-18\hskip 1em\relax A cappella meets Jazz}{21}{subsection*.49}}
\@writefile{toc}{\contentsline {subsection}{2014-05-04\hskip 1em\relax Gottesdienst in Saint-Louis en l'Ille}{22}{subsection*.50}}
\@writefile{toc}{\contentsline {subsection}{2014-05-03\hskip 1em\relax Concert de musique sacre\IeC {\'e} a cappella in Paris}{22}{subsection*.51}}
\@writefile{toc}{\contentsline {subsection}{2014-05-02\hskip 1em\relax Concert de musique sacre\IeC {\'e} a cappella in Versailles}{22}{subsection*.52}}
\@writefile{toc}{\contentsline {subsection}{2014-04-18\hskip 1em\relax Gottesdienst zum Karfreitag}{22}{subsection*.53}}
\@writefile{toc}{\contentsline {subsection}{2014-01-06\hskip 1em\relax Er\IeC {\"o}ffnung der 17. Mannheimer Vesperkirche}{22}{subsection*.54}}
\@writefile{toc}{\contentsline {subsection}{2013-12-24\hskip 1em\relax Christvesper}{22}{subsection*.55}}
\@writefile{toc}{\contentsline {subsection}{2013-11-24\hskip 1em\relax Aus der Tiefe rufe ich, Herr, zu Dir}{22}{subsection*.56}}
\@writefile{toc}{\contentsline {subsection}{2013-10-31\hskip 1em\relax Reformationsfeier}{22}{subsection*.57}}
\@writefile{toc}{\contentsline {subsection}{2013-03-28\hskip 1em\relax Gottesdienst zum Karfreitag}{22}{subsection*.58}}
\@writefile{toc}{\contentsline {subsection}{2013-03-17\hskip 1em\relax J. S. Bach: Johannespassion}{22}{subsection*.59}}
\@writefile{toc}{\contentsline {subsection}{2013-01-06\hskip 1em\relax Er\IeC {\"o}ffnung der 16. Mannheimer Vesperkirche}{23}{subsection*.60}}
\@writefile{toc}{\contentsline {subsection}{2012-12-24\hskip 1em\relax Christvesper}{23}{subsection*.61}}
\@writefile{toc}{\contentsline {subsection}{2012-12-02\hskip 1em\relax J. S. Bach: Weihnachtsoratorium 1\IeC {\textendash }3}{23}{subsection*.62}}
\@writefile{toc}{\contentsline {subsection}{2012-12-02\hskip 1em\relax Weihnachtsoratorium f\IeC {\"u}r Kinder}{23}{subsection*.63}}
\@writefile{toc}{\contentsline {subsection}{2012-10-31\hskip 1em\relax Reformationsfeier}{23}{subsection*.64}}
\@writefile{toc}{\contentsline {subsection}{2012-05-18\hskip 1em\relax Nachtkonzert}{23}{subsection*.65}}
\@writefile{toc}{\contentsline {subsection}{2012-05-13\hskip 1em\relax Lobet den Herrn!}{23}{subsection*.66}}
\@writefile{toc}{\contentsline {subsection}{2012-05-01\hskip 1em\relax Lobet den Herrn, Werken voor koor en orgel}{24}{subsection*.67}}
\@writefile{toc}{\contentsline {subsection}{2012-04-28\hskip 1em\relax Lobet den Herrn, Werken voor koor en orgel}{24}{subsection*.68}}
\@writefile{toc}{\contentsline {subsection}{2012-03-22\hskip 1em\relax Einf\IeC {\"u}hrung Dekan Hartmann}{24}{subsection*.69}}
\@writefile{toc}{\contentsline {subsection}{2012-04-06\hskip 1em\relax Gottesdienst zum Karfreitag}{24}{subsection*.70}}
\@writefile{toc}{\contentsline {subsection}{2012-03-25\hskip 1em\relax Gottesdienst zur Verabschiedung von Dekan Eitenm\IeC {\"u}ller}{24}{subsection*.71}}
\@writefile{toc}{\contentsline {subsection}{2012-01-06\hskip 1em\relax Er\IeC {\"o}ffnung der 15. Mannheimer Vesperkirche}{24}{subsection*.72}}
\@writefile{toc}{\contentsline {subsection}{2011-12-24\hskip 1em\relax Christvesper}{24}{subsection*.73}}
\@writefile{toc}{\contentsline {subsection}{2011-11-20\hskip 1em\relax J. Brahms: Ein deutsches Requiem}{24}{subsection*.74}}
\@writefile{toc}{\contentsline {subsection}{2011-10-31\hskip 1em\relax Reformationsfeier}{24}{subsection*.75}}
\@writefile{toc}{\contentsline {subsection}{2011-09-11\hskip 1em\relax Gottesdienst zum 12. Sonntag nach Trinitatis}{25}{subsection*.76}}
\@writefile{toc}{\contentsline {subsection}{2011-07-09\hskip 1em\relax 100 Jahre Christuskirche}{25}{subsection*.77}}
\@writefile{toc}{\contentsline {subsection}{2011-05-11\hskip 1em\relax Max Reger, Anton Bruckner}{25}{subsection*.78}}
\@writefile{toc}{\contentsline {subsection}{2011-04-22\hskip 1em\relax Gottesdienst zum Karfreitag}{25}{subsection*.79}}
\@writefile{toc}{\contentsline {subsection}{2011-01-06\hskip 1em\relax Er\IeC {\"o}ffnung der 14. Mannheimer Vesperkirche}{25}{subsection*.80}}
\@writefile{toc}{\contentsline {subsection}{2010-12-24\hskip 1em\relax Christvesper}{25}{subsection*.81}}
\@writefile{toc}{\contentsline {subsection}{2010-12-05\hskip 1em\relax G. Puccini: Missa di Gloria}{25}{subsection*.82}}
\@writefile{toc}{\contentsline {subsection}{2010-11-28\hskip 1em\relax Gottesdienst zum 1. Advent}{25}{subsection*.83}}
\@writefile{toc}{\contentsline {subsection}{2010-10-31\hskip 1em\relax Reformationsfeier}{26}{subsection*.84}}
\@writefile{toc}{\contentsline {subsection}{2010-10-30\hskip 1em\relax Geburtstag Herr Klein}{26}{subsection*.85}}
\@writefile{toc}{\contentsline {subsection}{2010-10-10\hskip 1em\relax Gottesdienst zur Amtseinf\IeC {\"u}hrung von Anne Ressel}{26}{subsection*.86}}
\@writefile{toc}{\contentsline {subsection}{2010-09-19\hskip 1em\relax Gottesdienst zum 16. Sonntag nach Trinitatis}{26}{subsection*.87}}
\@writefile{toc}{\contentsline {subsection}{2010-06-13\hskip 1em\relax Sweeter than roses}{26}{subsection*.88}}
\@writefile{toc}{\contentsline {subsection}{2010-05-13\hskip 1em\relax Sumer is icumen in}{26}{subsection*.89}}
\@writefile{toc}{\contentsline {subsection}{2010-04-04\hskip 1em\relax Rundfunkgottesdienst zum Ostersonntag}{27}{subsection*.90}}
\@writefile{toc}{\contentsline {subsection}{2010-01-06\hskip 1em\relax Er\IeC {\"o}ffnung der 13. Mannheimer Vesperkirche}{27}{subsection*.91}}
\@writefile{toc}{\contentsline {subsection}{2009-12-24\hskip 1em\relax Christvesper}{27}{subsection*.92}}
\@writefile{toc}{\contentsline {subsection}{2009-12-13\hskip 1em\relax C. Monteverdi, Marienvesper}{27}{subsection*.93}}
\@writefile{toc}{\contentsline {subsection}{2009-10-31\hskip 1em\relax Reformationsfeier}{27}{subsection*.94}}
\@writefile{toc}{\contentsline {subsection}{2009-06-28\hskip 1em\relax Romantische Chor- und Orgelmusik}{28}{subsection*.95}}
\@writefile{toc}{\contentsline {subsection}{2009-04-10\hskip 1em\relax Gottesdienst zum Karfreitag}{28}{subsection*.96}}
\@writefile{toc}{\contentsline {subsection}{2009-01-06\hskip 1em\relax Er\IeC {\"o}ffnung der 12. Mannheimer Vesperkirche}{28}{subsection*.97}}
\@writefile{toc}{\contentsline {subsection}{2008-12-24\hskip 1em\relax Christvesper}{28}{subsection*.98}}
\@writefile{toc}{\contentsline {subsection}{2008-11-23\hskip 1em\relax Mozart-Requiem}{28}{subsection*.99}}
\@writefile{toc}{\contentsline {subsection}{2008-10-31\hskip 1em\relax Reformationsfeier}{28}{subsection*.100}}
\@writefile{toc}{\contentsline {subsection}{2008-06-15\hskip 1em\relax Jubilalalalate Deo}{28}{subsection*.101}}
\@writefile{toc}{\contentsline {subsection}{2008-05-03\hskip 1em\relax Chormusik a cappella}{29}{subsection*.102}}
\@writefile{toc}{\contentsline {subsection}{2008-05-01\hskip 1em\relax Chormusik a cappella}{29}{subsection*.103}}
\@writefile{toc}{\contentsline {subsection}{2008-03-31\hskip 1em\relax Gottesdienst zum Karfreitag}{29}{subsection*.104}}
\@writefile{toc}{\contentsline {subsection}{2008-01-06\hskip 1em\relax Er\IeC {\"o}ffnung der 11. Mannheimer Vesperkirche}{29}{subsection*.105}}
\@writefile{toc}{\contentsline {subsection}{2007-12-24\hskip 1em\relax Christvesper}{29}{subsection*.106}}
\@writefile{toc}{\contentsline {subsection}{2007-12-02\hskip 1em\relax J. S. Bach: Weihnachtsoratorium 4\IeC {\textendash }6}{29}{subsection*.107}}
\@writefile{toc}{\contentsline {subsection}{2007-10-31\hskip 1em\relax Reformationsfeier}{29}{subsection*.108}}
\@writefile{toc}{\contentsline {subsection}{2007-06-17\hskip 1em\relax Konkordienkantorei\IeC {${}^2$} \IeC {\textendash } Eine Liebeserkl\IeC {\"a}rung an Mannheim}{29}{subsection*.109}}
\@writefile{toc}{\contentsline {subsection}{2007-04-06\hskip 1em\relax Gottesdienst zum Karfreitag}{30}{subsection*.110}}
\@writefile{toc}{\contentsline {subsection}{2007-01-06\hskip 1em\relax Er\IeC {\"o}ffnung der 10. Mannheimer Vesperkirche}{30}{subsection*.111}}
\@writefile{toc}{\contentsline {subsection}{2006-12-24\hskip 1em\relax Christvesper}{30}{subsection*.112}}
\@writefile{toc}{\contentsline {subsection}{2006-12-10\hskip 1em\relax J. S. Bach: Weihnachtsoratorium 1\IeC {\textendash }3}{30}{subsection*.113}}
\@writefile{toc}{\contentsline {subsection}{2006-10-31\hskip 1em\relax Reformationsfeier}{30}{subsection*.114}}
\@writefile{toc}{\contentsline {subsection}{2006-10-15\hskip 1em\relax \IeC {\quotedblbase }... wie Bach in Frankreich\IeC {\textquotedblright }}{30}{subsection*.115}}
\@writefile{toc}{\contentsline {section}{Werke}{31}{section*.116}}
\newlabel{chap:werke}{{}{31}{Werke}{section*.116}{}}
\@writefile{toc}{\contentsline {subsection}{A hymn to the Virgin}{31}{subsection*.117}}
\@writefile{toc}{\contentsline {subsection}{Abendlied}{31}{subsection*.118}}
\@writefile{toc}{\contentsline {subsection}{Abendsegen}{32}{subsection*.119}}
\@writefile{toc}{\contentsline {subsection}{Ach Herr, la\IeC {\ss } dein lieb Engelein}{32}{subsection*.120}}
\@writefile{toc}{\contentsline {subsection}{Agnus Dei}{33}{subsection*.121}}
\@writefile{toc}{\contentsline {subsection}{Agnus Dei}{33}{subsection*.122}}
\@writefile{toc}{\contentsline {subsection}{Alle Welt springe}{34}{subsection*.123}}
\@writefile{toc}{\contentsline {subsection}{Aller Augen warten auf dich, Herr}{34}{subsection*.124}}
\@writefile{toc}{\contentsline {subsection}{Aller Augen warten auf dich, Herr}{35}{subsection*.125}}
\@writefile{toc}{\contentsline {subsection}{Alta trinita beata}{35}{subsection*.126}}
\@writefile{toc}{\contentsline {subsection}{Aus der Tiefe}{36}{subsection*.127}}
\@writefile{toc}{\contentsline {subsection}{Aus der Tiefe}{36}{subsection*.128}}
\@writefile{toc}{\contentsline {subsection}{Aus der Tiefe}{37}{subsection*.129}}
\@writefile{toc}{\contentsline {subsection}{Aus der Tiefen rufe ich Herr zu dir}{37}{subsection*.130}}
\@writefile{toc}{\contentsline {subsection}{Aus tiefer Not}{38}{subsection*.131}}
\@writefile{toc}{\contentsline {subsection}{Aus tiefer Not}{38}{subsection*.132}}
\@writefile{toc}{\contentsline {subsection}{Aus tiefer Not schrei ich zu Dir}{39}{subsection*.133}}
\@writefile{toc}{\contentsline {subsection}{Ave Maria}{39}{subsection*.134}}
\@writefile{toc}{\contentsline {subsection}{Ave Maria (Angelus Domini)}{40}{subsection*.135}}
\@writefile{toc}{\contentsline {subsection}{Ave, maris stella}{40}{subsection*.136}}
\@writefile{toc}{\contentsline {subsection}{Bachs Weihnachtsoratorium f\IeC {\"u}r Kinder}{41}{subsection*.137}}
\@writefile{toc}{\contentsline {subsection}{Bleibet hier}{41}{subsection*.138}}
\@writefile{toc}{\contentsline {subsection}{Cantate Domino}{42}{subsection*.139}}
\@writefile{toc}{\contentsline {subsection}{Cantate Domino}{42}{subsection*.140}}
\@writefile{toc}{\contentsline {subsection}{Cantate Domino}{43}{subsection*.141}}
\@writefile{toc}{\contentsline {subsection}{Cantate Domino}{43}{subsection*.142}}
\@writefile{toc}{\contentsline {subsection}{Chichester Psalms}{44}{subsection*.143}}
\@writefile{toc}{\contentsline {subsection}{Credo}{44}{subsection*.144}}
\@writefile{toc}{\contentsline {subsection}{Da unten im Tale}{45}{subsection*.145}}
\@writefile{toc}{\contentsline {subsection}{Das Sursum Corda}{45}{subsection*.146}}
\@writefile{toc}{\contentsline {subsection}{Denn Er hat seinen Engeln befohlen}{46}{subsection*.147}}
\@writefile{toc}{\contentsline {subsection}{Deo dicamus gratias}{46}{subsection*.148}}
\@writefile{toc}{\contentsline {subsection}{Der 100. Psalm -- Jauchzet dem Herrn, alle Welt}{47}{subsection*.149}}
\@writefile{toc}{\contentsline {subsection}{Der 130. Psalm -- Aus der Tiefe ruf ich, Herr zu dir}{47}{subsection*.150}}
\@writefile{toc}{\contentsline {subsection}{Der 2. Psalm -- Warum toben die Heiden}{48}{subsection*.151}}
\@writefile{toc}{\contentsline {subsection}{Der 2. Psalm: Warum toben die Heiden}{48}{subsection*.152}}
\@writefile{toc}{\contentsline {subsection}{Der 43. Psalm: Richte mich, Gott}{49}{subsection*.153}}
\@writefile{toc}{\contentsline {subsection}{Der Mensch lebt und bestehet}{49}{subsection*.154}}
\@writefile{toc}{\contentsline {subsection}{Der Mond ist aufgegangen}{50}{subsection*.155}}
\@writefile{toc}{\contentsline {subsection}{Der Morgenstern ist aufgedrungen}{50}{subsection*.156}}
\@writefile{toc}{\contentsline {subsection}{Det \IeC {\"a}r en ros utsprungen}{51}{subsection*.157}}
\@writefile{toc}{\contentsline {subsection}{Die K\IeC {\"o}nige}{51}{subsection*.158}}
\@writefile{toc}{\contentsline {subsection}{Die K\IeC {\"o}nige}{52}{subsection*.159}}
\@writefile{toc}{\contentsline {subsection}{Dixit Dominus}{52}{subsection*.160}}
\@writefile{toc}{\contentsline {subsection}{Dixit Maria ad Angelum}{53}{subsection*.161}}
\@writefile{toc}{\contentsline {subsection}{Domine ad adiuvandum}{53}{subsection*.162}}
\@writefile{toc}{\contentsline {subsection}{Durch dein Gef\IeC {\"a}ngnis}{54}{subsection*.163}}
\@writefile{toc}{\contentsline {subsection}{Ein feste Burg ist unser Gott}{54}{subsection*.164}}
\@writefile{toc}{\contentsline {subsection}{En natus est Emanuel}{55}{subsection*.165}}
\@writefile{toc}{\contentsline {subsection}{Er nahm alles Wohl in acht}{55}{subsection*.166}}
\@writefile{toc}{\contentsline {subsection}{Es ist ein Ros entsprungen}{56}{subsection*.167}}
\@writefile{toc}{\contentsline {subsection}{Freut euch, wir sind Gottes Volk}{56}{subsection*.168}}
\@writefile{toc}{\contentsline {subsection}{F\IeC {\"u}rchte dich nicht, ich bin bei dir}{57}{subsection*.169}}
\@writefile{toc}{\contentsline {subsection}{Geht hin, ihr gl\IeC {\"a}ubigen Gedanken}{57}{subsection*.170}}
\@writefile{toc}{\contentsline {subsection}{Gloria}{58}{subsection*.171}}
\@writefile{toc}{\contentsline {subsection}{Gloria}{58}{subsection*.172}}
\@writefile{toc}{\contentsline {subsection}{Gloria in excelsis Deo}{59}{subsection*.173}}
\@writefile{toc}{\contentsline {subsection}{Gott ist gegenw\IeC {\"a}rtig}{59}{subsection*.174}}
\@writefile{toc}{\contentsline {subsection}{Graduale - Christus factus est}{60}{subsection*.175}}
\@writefile{toc}{\contentsline {subsection}{Graduale - Locus iste}{60}{subsection*.176}}
\@writefile{toc}{\contentsline {subsection}{Graduale - Os justi}{61}{subsection*.177}}
\@writefile{toc}{\contentsline {subsection}{Gro\IeC {\ss }e Messe in c-Moll}{61}{subsection*.178}}
\@writefile{toc}{\contentsline {subsection}{Hear my prayer, O Lord}{62}{subsection*.179}}
\@writefile{toc}{\contentsline {subsection}{Hear my prayer, O Lord}{62}{subsection*.180}}
\@writefile{toc}{\contentsline {subsection}{Hymnus: Ave maris stella}{63}{subsection*.181}}
\@writefile{toc}{\contentsline {subsection}{H\IeC {\"o}rt, der Engel helle Lieder}{63}{subsection*.182}}
\@writefile{toc}{\contentsline {subsection}{H\IeC {\o }r, himlens gledessang}{64}{subsection*.183}}
\@writefile{toc}{\contentsline {subsection}{I Will Praise Thee, O Lord}{64}{subsection*.184}}
\@writefile{toc}{\contentsline {subsection}{I. Selig sind, die da Leid tragen}{65}{subsection*.185}}
\@writefile{toc}{\contentsline {subsection}{II. Denn alles Fleisch ist wie Gras}{65}{subsection*.186}}
\@writefile{toc}{\contentsline {subsection}{III. Herr, lehre doch mich}{66}{subsection*.187}}
\@writefile{toc}{\contentsline {subsection}{IV. Wie lieblich sind deine Wohnungen}{66}{subsection*.188}}
\@writefile{toc}{\contentsline {subsection}{Ich bin das Brot des Lebens}{67}{subsection*.189}}
\@writefile{toc}{\contentsline {subsection}{Ich lasse dich nicht}{67}{subsection*.190}}
\@writefile{toc}{\contentsline {subsection}{Ich singe dir mit Herz und Mund}{68}{subsection*.191}}
\@writefile{toc}{\contentsline {subsection}{Ich singe dir mit Herz und Mund}{68}{subsection*.192}}
\@writefile{toc}{\contentsline {subsection}{Ich steh an deiner Krippen hier}{69}{subsection*.193}}
\@writefile{toc}{\contentsline {subsection}{Immortal Bach}{69}{subsection*.194}}
\@writefile{toc}{\contentsline {subsection}{In dulci Jubilo}{70}{subsection*.195}}
\@writefile{toc}{\contentsline {subsection}{In pride of May}{70}{subsection*.196}}
\@writefile{toc}{\contentsline {subsection}{Introitus f\IeC {\"u}r die Adventssonntage}{71}{subsection*.197}}
\@writefile{toc}{\contentsline {subsection}{It is my well-beloved's voice}{71}{subsection*.198}}
\@writefile{toc}{\contentsline {subsection}{Jauchzet dem Herrn alle Welt}{72}{subsection*.199}}
\@writefile{toc}{\contentsline {subsection}{Jesu, meine Freude}{72}{subsection*.200}}
\@writefile{toc}{\contentsline {subsection}{Jesu, meines Lebens Leben}{73}{subsection*.201}}
\@writefile{toc}{\contentsline {subsection}{Jesus, unser Trost und Leben}{73}{subsection*.202}}
\@writefile{toc}{\contentsline {subsection}{Johannespassion}{74}{subsection*.203}}
\@writefile{toc}{\contentsline {subsection}{Joseph, lieber Joseph mein}{74}{subsection*.204}}
\@writefile{toc}{\contentsline {subsection}{Jubilate Deo}{75}{subsection*.205}}
\@writefile{toc}{\contentsline {subsection}{Jubilate Deo}{75}{subsection*.206}}
\@writefile{toc}{\contentsline {subsection}{Komm, o Tod, du Schlafes Bruder}{76}{subsection*.207}}
\@writefile{toc}{\contentsline {subsection}{Kommet, ihr Hirten}{76}{subsection*.208}}
\@writefile{toc}{\contentsline {subsection}{Kyrie}{77}{subsection*.209}}
\@writefile{toc}{\contentsline {subsection}{Kyrie}{77}{subsection*.210}}
\@writefile{toc}{\contentsline {subsection}{Kyrie}{78}{subsection*.211}}
\@writefile{toc}{\contentsline {subsection}{Kyrie}{78}{subsection*.212}}
\@writefile{toc}{\contentsline {subsection}{Kyrie eleison}{79}{subsection*.213}}
\@writefile{toc}{\contentsline {subsection}{K\IeC {\"o}nige vom Morgenland}{79}{subsection*.214}}
\@writefile{toc}{\contentsline {subsection}{Laetatus sum}{80}{subsection*.215}}
\@writefile{toc}{\contentsline {subsection}{Lauda Jerusalemn}{80}{subsection*.216}}
\@writefile{toc}{\contentsline {subsection}{Laudate}{81}{subsection*.217}}
\@writefile{toc}{\contentsline {subsection}{Laudate Pueri Dominum}{81}{subsection*.218}}
\@writefile{toc}{\contentsline {subsection}{Lobet den Herren, alle Heiden}{82}{subsection*.219}}
\@writefile{toc}{\contentsline {subsection}{Machet die Tore weit}{82}{subsection*.220}}
\@writefile{toc}{\contentsline {subsection}{Macht hoch die T\IeC {\"u}r}{83}{subsection*.221}}
\@writefile{toc}{\contentsline {subsection}{Magnificat}{83}{subsection*.222}}
\@writefile{toc}{\contentsline {subsection}{Magnificat}{84}{subsection*.223}}
\@writefile{toc}{\contentsline {subsection}{Maria durch ein Dornwald ging}{84}{subsection*.224}}
\@writefile{toc}{\contentsline {subsection}{Maria durch ein Dornwald ging}{85}{subsection*.225}}
\@writefile{toc}{\contentsline {subsection}{Missa da Requiem}{85}{subsection*.226}}
\@writefile{toc}{\contentsline {subsection}{Mitten wir im Leben sind}{86}{subsection*.227}}
\@writefile{toc}{\contentsline {subsection}{Morgengesang}{86}{subsection*.228}}
\@writefile{toc}{\contentsline {subsection}{Nachtlied}{87}{subsection*.229}}
\@writefile{toc}{\contentsline {subsection}{Nisi Dominus}{87}{subsection*.230}}
\@writefile{toc}{\contentsline {subsection}{Notre P\IeC {\`e}re}{88}{subsection*.231}}
\@writefile{toc}{\contentsline {subsection}{Nun geh uns auf, du Morgenstern}{88}{subsection*.232}}
\@writefile{toc}{\contentsline {subsection}{Nun komm, der Heiden Heiland}{89}{subsection*.233}}
\@writefile{toc}{\contentsline {subsection}{Nun ruhen alle W\IeC {\"a}lder}{89}{subsection*.234}}
\@writefile{toc}{\contentsline {subsection}{Nunc dimittis}{90}{subsection*.235}}
\@writefile{toc}{\contentsline {subsection}{O Haupt voll Blut und Wunden}{90}{subsection*.236}}
\@writefile{toc}{\contentsline {subsection}{O Lord, in thee is all my trust}{91}{subsection*.237}}
\@writefile{toc}{\contentsline {subsection}{O magnum mysterium}{91}{subsection*.238}}
\@writefile{toc}{\contentsline {subsection}{O sacrum convivium!}{92}{subsection*.239}}
\@writefile{toc}{\contentsline {subsection}{Pater Noster}{92}{subsection*.240}}
\@writefile{toc}{\contentsline {subsection}{Peace I Leave With You}{93}{subsection*.241}}
\@writefile{toc}{\contentsline {subsection}{Requiem}{93}{subsection*.242}}
\@writefile{toc}{\contentsline {subsection}{Sactus e Benedictus}{94}{subsection*.243}}
\@writefile{toc}{\contentsline {subsection}{Salvum fac regem, Domine}{94}{subsection*.244}}
\@writefile{toc}{\contentsline {subsection}{Schaffe in mir, Gott, ein rein Herz}{95}{subsection*.245}}
\@writefile{toc}{\contentsline {subsection}{Schau hin nach Golgatha}{95}{subsection*.246}}
\@writefile{toc}{\contentsline {subsection}{Schnitter Tod}{96}{subsection*.247}}
\@writefile{toc}{\contentsline {subsection}{Sommarpsalm}{96}{subsection*.248}}
\@writefile{toc}{\contentsline {subsection}{Sonata sopra \glqq Sancta Maria\grqq }{97}{subsection*.249}}
\@writefile{toc}{\contentsline {subsection}{Sonne der Gerechtigkeit}{97}{subsection*.250}}
\@writefile{toc}{\contentsline {subsection}{Sonne der Gerechtigkeit}{98}{subsection*.251}}
\@writefile{toc}{\contentsline {subsection}{Stille Nacht, heilige Nacht}{98}{subsection*.252}}
\@writefile{toc}{\contentsline {subsection}{Stille Nacht, heilige Nacht}{99}{subsection*.253}}
\@writefile{toc}{\contentsline {subsection}{Sumer is icumen in}{99}{subsection*.254}}
\@writefile{toc}{\contentsline {subsection}{Terra tremuit}{100}{subsection*.255}}
\@writefile{toc}{\contentsline {subsection}{The first Nowell}{100}{subsection*.256}}
\@writefile{toc}{\contentsline {subsection}{Thus saith the Lord}{101}{subsection*.257}}
\@writefile{toc}{\contentsline {subsection}{Tochter Zion, freue dich}{101}{subsection*.258}}
\@writefile{toc}{\contentsline {subsection}{Tollite Hostias}{102}{subsection*.259}}
\@writefile{toc}{\contentsline {subsection}{Tu es Petrus}{102}{subsection*.260}}
\@writefile{toc}{\contentsline {subsection}{Tut mir auf die sch\IeC {\"o}ne Pforte}{103}{subsection*.261}}
\@writefile{toc}{\contentsline {subsection}{Ubi Caritas}{103}{subsection*.262}}
\@writefile{toc}{\contentsline {subsection}{Ubi caritas}{104}{subsection*.263}}
\@writefile{toc}{\contentsline {subsection}{Ubi sunt gaudia}{104}{subsection*.264}}
\@writefile{toc}{\contentsline {subsection}{Unser lieben Frauen Traum}{105}{subsection*.265}}
\@writefile{toc}{\contentsline {subsection}{Unsere V\IeC {\"a}ter hofften auf dich}{105}{subsection*.266}}
\@writefile{toc}{\contentsline {subsection}{V'amo di core}{106}{subsection*.267}}
\@writefile{toc}{\contentsline {subsection}{V. Ihr habt nun Traurigkeit}{106}{subsection*.268}}
\@writefile{toc}{\contentsline {subsection}{VI. Denn wir haben hie keine bleibende Statt}{107}{subsection*.269}}
\@writefile{toc}{\contentsline {subsection}{VII. Selig sind die Toten}{107}{subsection*.270}}
\@writefile{toc}{\contentsline {subsection}{Verleih uns Frieden gn\IeC {\"a}diglich}{108}{subsection*.271}}
\@writefile{toc}{\contentsline {subsection}{Verleih uns Frieden gn\IeC {\"a}diglich}{108}{subsection*.272}}
\@writefile{toc}{\contentsline {subsection}{Vom Himmel hoch, da komm ich her}{109}{subsection*.273}}
\@writefile{toc}{\contentsline {subsection}{Vom Himmel in die tiefsten Kl\IeC {\"u}fte}{109}{subsection*.274}}
\@writefile{toc}{\contentsline {subsection}{Von 55 Engeln beh\IeC {\"u}tet}{110}{subsection*.275}}
\@writefile{toc}{\contentsline {subsection}{Weihnachten}{110}{subsection*.276}}
\@writefile{toc}{\contentsline {subsection}{Weihnachtsoratorium Teil I: Jauchzet, frohlocket}{111}{subsection*.277}}
\@writefile{toc}{\contentsline {subsection}{Weihnachtsoratorium Teil II: Und es waren Hirten}{111}{subsection*.278}}
\@writefile{toc}{\contentsline {subsection}{Weihnachtsoratorium Teil III: Herrscher des Himmels}{112}{subsection*.279}}
\@writefile{toc}{\contentsline {subsection}{Weihnachtsoratorium Teil IV: Fallt mit Danken, fallt mit Loben}{112}{subsection*.280}}
\@writefile{toc}{\contentsline {subsection}{Weihnachtsoratorium Teil V: Ehre sei dir, Gott, gesungen}{113}{subsection*.281}}
\@writefile{toc}{\contentsline {subsection}{Weihnachtsoratorium Teil VI: Herr, wenn die stolzen Feinde schnauben}{113}{subsection*.282}}
\@writefile{toc}{\contentsline {subsection}{Wer unter dem Schirm des H\IeC {\"o}chsten sitzt}{114}{subsection*.283}}
\@writefile{toc}{\contentsline {subsection}{Wie liegt die Stadt so w\IeC {\"u}st}{114}{subsection*.284}}
\@writefile{toc}{\contentsline {subsection}{Wie sch\IeC {\"o}n singt uns der Engel Schar}{115}{subsection*.285}}
\@writefile{toc}{\contentsline {subsection}{Wie soll ich dich empfangen}{115}{subsection*.286}}
\@writefile{toc}{\contentsline {subsection}{Wirf dein Anliegen auf den Herrn}{116}{subsection*.287}}
\@writefile{toc}{\contentsline {subsection}{Wo Engelsstimm im Lied erschallt}{116}{subsection*.288}}
\@writefile{toc}{\contentsline {subsection}{Zu Bethlem \IeC {\"u}berm Stall}{117}{subsection*.289}}
\@writefile{toc}{\contentsline {subsection}{h-Moll Messe}{117}{subsection*.290}}
\@writefile{toc}{\contentsline {section}{Komponisten}{118}{section*.291}}
\newlabel{chap:komponisten}{{}{118}{Komponisten}{section*.291}{}}
\@writefile{toc}{\contentsline {subsection}{Waldemar \IeC {\r A}hl\IeC {\'e}n}{118}{subsection*.292}}
\newlabel{WAhl}{{}{118}{\composer@canonicalname }{subsection*.292}{}}
\@writefile{toc}{\contentsline {subsection}{Johann Christian Bach}{118}{subsection*.293}}
\newlabel{CBac}{{}{118}{\composer@canonicalname }{subsection*.293}{}}
\@writefile{toc}{\contentsline {subsection}{Johann Sebastian Bach}{118}{subsection*.294}}
\newlabel{SBac}{{}{118}{\composer@canonicalname }{subsection*.294}{}}
\@writefile{toc}{\contentsline {subsection}{Max Baumann}{119}{subsection*.295}}
\newlabel{MBau}{{}{119}{\composer@canonicalname }{subsection*.295}{}}
\@writefile{toc}{\contentsline {subsection}{Jacques Berthier}{120}{subsection*.296}}
\newlabel{JBer}{{}{120}{\composer@canonicalname }{subsection*.296}{}}
\@writefile{toc}{\contentsline {subsection}{Leonard Bernstein}{120}{subsection*.297}}
\newlabel{LBer}{{}{120}{\composer@canonicalname }{subsection*.297}{}}
\@writefile{toc}{\contentsline {subsection}{Franz Biebl}{120}{subsection*.298}}
\newlabel{FBie}{{}{120}{\composer@canonicalname }{subsection*.298}{}}
\@writefile{toc}{\contentsline {subsection}{Erhard Bodenschatz}{121}{subsection*.299}}
\newlabel{EBod}{{}{121}{\composer@canonicalname }{subsection*.299}{}}
\@writefile{toc}{\contentsline {subsection}{Johannes Brahms}{121}{subsection*.300}}
\newlabel{JBra}{{}{121}{\composer@canonicalname }{subsection*.300}{}}
\@writefile{toc}{\contentsline {subsection}{Benjamin Britten}{122}{subsection*.301}}
\newlabel{BBri}{{}{122}{\composer@canonicalname }{subsection*.301}{}}
\@writefile{toc}{\contentsline {subsection}{Anton Bruckner}{122}{subsection*.302}}
\newlabel{ABru}{{}{122}{\composer@canonicalname }{subsection*.302}{}}
\@writefile{toc}{\contentsline {subsection}{Wolfram Buchenberg}{122}{subsection*.303}}
\newlabel{WBuc}{{}{122}{\composer@canonicalname }{subsection*.303}{}}
\@writefile{toc}{\contentsline {subsection}{William Byrd}{123}{subsection*.304}}
\newlabel{WByr}{{}{123}{\composer@canonicalname }{subsection*.304}{}}
\@writefile{toc}{\contentsline {subsection}{Peter Cornelius}{123}{subsection*.305}}
\newlabel{PCor}{{}{123}{\composer@canonicalname }{subsection*.305}{}}
\@writefile{toc}{\contentsline {subsection}{Hugo Distler}{123}{subsection*.306}}
\newlabel{HDis}{{}{123}{\composer@canonicalname }{subsection*.306}{}}
\@writefile{toc}{\contentsline {subsection}{Maurice Durufl\IeC {\'e}}{124}{subsection*.307}}
\newlabel{MDur}{{}{124}{\composer@canonicalname }{subsection*.307}{}}
\@writefile{toc}{\contentsline {subsection}{Wolfgang Fortner}{124}{subsection*.308}}
\newlabel{WFor}{{}{124}{\composer@canonicalname }{subsection*.308}{}}
\@writefile{toc}{\contentsline {subsection}{Cornelius Freundt}{124}{subsection*.309}}
\newlabel{CFre}{{}{124}{\composer@canonicalname }{subsection*.309}{}}
\@writefile{toc}{\contentsline {subsection}{Giovanni Gabrieli}{125}{subsection*.310}}
\newlabel{GGab}{{}{125}{\composer@canonicalname }{subsection*.310}{}}
\@writefile{toc}{\contentsline {subsection}{Ola Gjeilo}{125}{subsection*.311}}
\newlabel{OGje}{{}{125}{\composer@canonicalname }{subsection*.311}{}}
\@writefile{toc}{\contentsline {subsection}{Clytus Gottwald}{125}{subsection*.312}}
\newlabel{CGot}{{}{125}{\composer@canonicalname }{subsection*.312}{}}
\@writefile{toc}{\contentsline {subsection}{Edvard Grieg}{126}{subsection*.313}}
\newlabel{EGri}{{}{126}{\composer@canonicalname }{subsection*.313}{}}
\@writefile{toc}{\contentsline {subsection}{Lodovico Grossi da Viadana}{126}{subsection*.314}}
\newlabel{LGro}{{}{126}{\composer@canonicalname }{subsection*.314}{}}
\@writefile{toc}{\contentsline {subsection}{Michael Gusenbauer}{126}{subsection*.315}}
\newlabel{MGus}{{}{126}{\composer@canonicalname }{subsection*.315}{}}
\@writefile{toc}{\contentsline {subsection}{Andreas Hammerschmidt}{127}{subsection*.316}}
\newlabel{AHam}{{}{127}{\composer@canonicalname }{subsection*.316}{}}
\@writefile{toc}{\contentsline {subsection}{Georg Friedrich H\IeC {\"a}ndel}{127}{subsection*.317}}
\newlabel{GHan}{{}{127}{\composer@canonicalname }{subsection*.317}{}}
\@writefile{toc}{\contentsline {subsection}{Hans Leo Ha\IeC {\ss }ler}{127}{subsection*.318}}
\newlabel{HHas}{{}{127}{\composer@canonicalname }{subsection*.318}{}}
\@writefile{toc}{\contentsline {subsection}{Moritz Hauptmann}{128}{subsection*.319}}
\newlabel{MHau}{{}{128}{\composer@canonicalname }{subsection*.319}{}}
\@writefile{toc}{\contentsline {subsection}{Philip Hayes}{128}{subsection*.320}}
\newlabel{PHay}{{}{128}{\composer@canonicalname }{subsection*.320}{}}
\@writefile{toc}{\contentsline {subsection}{Johann Hildebrand}{128}{subsection*.321}}
\newlabel{JHil}{{}{128}{\composer@canonicalname }{subsection*.321}{}}
\@writefile{toc}{\contentsline {subsection}{Gustav Holst}{129}{subsection*.322}}
\newlabel{GHol}{{}{129}{\composer@canonicalname }{subsection*.322}{}}
\@writefile{toc}{\contentsline {subsection}{Gottfried August Homilius}{129}{subsection*.323}}
\newlabel{GHom}{{}{129}{\composer@canonicalname }{subsection*.323}{}}
\@writefile{toc}{\contentsline {subsection}{Egil Hovland}{129}{subsection*.324}}
\newlabel{EHov}{{}{129}{\composer@canonicalname }{subsection*.324}{}}
\@writefile{toc}{\contentsline {subsection}{John H\IeC {\o }ybye}{130}{subsection*.325}}
\newlabel{JHoy}{{}{130}{\composer@canonicalname }{subsection*.325}{}}
\@writefile{toc}{\contentsline {subsection}{Engelbert Humperdinck}{130}{subsection*.326}}
\newlabel{EHum}{{}{130}{\composer@canonicalname }{subsection*.326}{}}
\@writefile{toc}{\contentsline {subsection}{Heinrich Kaminski}{130}{subsection*.327}}
\newlabel{HKam}{{}{130}{\composer@canonicalname }{subsection*.327}{}}
\@writefile{toc}{\contentsline {subsection}{Heike Kiefner-Jesatko}{131}{subsection*.328}}
\newlabel{HKie}{{}{131}{\composer@canonicalname }{subsection*.328}{}}
\@writefile{toc}{\contentsline {subsection}{Orlando di Lasso}{131}{subsection*.329}}
\newlabel{OLas}{{}{131}{\composer@canonicalname }{subsection*.329}{}}
\@writefile{toc}{\contentsline {subsection}{Eusebius Mandyczewski}{131}{subsection*.330}}
\newlabel{EMan}{{}{131}{\composer@canonicalname }{subsection*.330}{}}
\@writefile{toc}{\contentsline {subsection}{Frank Martin}{132}{subsection*.331}}
\newlabel{FMar}{{}{132}{\composer@canonicalname }{subsection*.331}{}}
\@writefile{toc}{\contentsline {subsection}{Rudolf Mauersberger}{132}{subsection*.332}}
\newlabel{RMau}{{}{132}{\composer@canonicalname }{subsection*.332}{}}
\@writefile{toc}{\contentsline {subsection}{Felix Mendelssohn Bartholdy}{132}{subsection*.333}}
\newlabel{FMen}{{}{132}{\composer@canonicalname }{subsection*.333}{}}
\@writefile{toc}{\contentsline {subsection}{Olivier Messiaen}{133}{subsection*.334}}
\newlabel{OMes}{{}{133}{\composer@canonicalname }{subsection*.334}{}}
\@writefile{toc}{\contentsline {subsection}{Johannes Matthias Michel}{133}{subsection*.335}}
\newlabel{JMic}{{}{133}{\composer@canonicalname }{subsection*.335}{}}
\@writefile{toc}{\contentsline {subsection}{Josef Michel}{133}{subsection*.336}}
\newlabel{SMic}{{}{133}{\composer@canonicalname }{subsection*.336}{}}
\@writefile{toc}{\contentsline {subsection}{Vytautas Mi\IeC {\v s}kinis}{134}{subsection*.337}}
\newlabel{VMis}{{}{134}{\composer@canonicalname }{subsection*.337}{}}
\@writefile{toc}{\contentsline {subsection}{Claudio Monteverdi}{134}{subsection*.338}}
\newlabel{CMon}{{}{134}{\composer@canonicalname }{subsection*.338}{}}
\@writefile{toc}{\contentsline {subsection}{Wolfgang Amadeus Mozart}{135}{subsection*.339}}
\newlabel{WMoz}{{}{135}{\composer@canonicalname }{subsection*.339}{}}
\@writefile{toc}{\contentsline {subsection}{Fay Neary}{135}{subsection*.340}}
\newlabel{FNea}{{}{135}{\composer@canonicalname }{subsection*.340}{}}
\@writefile{toc}{\contentsline {subsection}{Joachim Neander}{135}{subsection*.341}}
\newlabel{JNea}{{}{135}{\composer@canonicalname }{subsection*.341}{}}
\@writefile{toc}{\contentsline {subsection}{Georg Neumark}{136}{subsection*.342}}
\newlabel{GNeu}{{}{136}{\composer@canonicalname }{subsection*.342}{}}
\@writefile{toc}{\contentsline {subsection}{Knut Nystedt}{136}{subsection*.343}}
\newlabel{KNys}{{}{136}{\composer@canonicalname }{subsection*.343}{}}
\@writefile{toc}{\contentsline {subsection}{Giuseppe Ottavio Pitoni}{136}{subsection*.344}}
\newlabel{GPit}{{}{136}{\composer@canonicalname }{subsection*.344}{}}
\@writefile{toc}{\contentsline {subsection}{Michael Praetorius}{137}{subsection*.345}}
\newlabel{MPra}{{}{137}{\composer@canonicalname }{subsection*.345}{}}
\@writefile{toc}{\contentsline {subsection}{Giacomo Puccini}{137}{subsection*.346}}
\newlabel{GPuc}{{}{137}{\composer@canonicalname }{subsection*.346}{}}
\@writefile{toc}{\contentsline {subsection}{Henry Purcell}{138}{subsection*.347}}
\newlabel{HPur}{{}{138}{\composer@canonicalname }{subsection*.347}{}}
\@writefile{toc}{\contentsline {subsection}{G\IeC {\"u}nter Raphael}{138}{subsection*.348}}
\newlabel{GRap}{{}{138}{\composer@canonicalname }{subsection*.348}{}}
\@writefile{toc}{\contentsline {subsection}{Max Reger}{138}{subsection*.349}}
\newlabel{MReg}{{}{138}{\composer@canonicalname }{subsection*.349}{}}
\@writefile{toc}{\contentsline {subsection}{Josef Gabriel Rheinberger}{139}{subsection*.350}}
\newlabel{JRhe}{{}{139}{\composer@canonicalname }{subsection*.350}{}}
\@writefile{toc}{\contentsline {subsection}{Ernst Friedrich Richter}{139}{subsection*.351}}
\newlabel{ERic}{{}{139}{\composer@canonicalname }{subsection*.351}{}}
\@writefile{toc}{\contentsline {subsection}{Carl Riedel}{139}{subsection*.352}}
\newlabel{CRie}{{}{139}{\composer@canonicalname }{subsection*.352}{}}
\@writefile{toc}{\contentsline {subsection}{Camille Saint-Sa\IeC {\"e}ns}{140}{subsection*.353}}
\newlabel{CSai}{{}{140}{\composer@canonicalname }{subsection*.353}{}}
\@writefile{toc}{\contentsline {subsection}{Jan Sandstr\IeC {\"o}m}{140}{subsection*.354}}
\newlabel{JSan}{{}{140}{\composer@canonicalname }{subsection*.354}{}}
\@writefile{toc}{\contentsline {subsection}{Sven-David Sandstr\IeC {\"o}m}{140}{subsection*.355}}
\newlabel{SSan}{{}{140}{\composer@canonicalname }{subsection*.355}{}}
\@writefile{toc}{\contentsline {subsection}{Adolf Seifert}{141}{subsection*.356}}
\newlabel{ASei}{{}{141}{\composer@canonicalname }{subsection*.356}{}}
\@writefile{toc}{\contentsline {subsection}{Thomas Selle}{141}{subsection*.357}}
\newlabel{TSel}{{}{141}{\composer@canonicalname }{subsection*.357}{}}
\@writefile{toc}{\contentsline {subsection}{Friedrich Silcher}{141}{subsection*.358}}
\newlabel{FSil}{{}{141}{\composer@canonicalname }{subsection*.358}{}}
\@writefile{toc}{\contentsline {subsection}{Martin Gotthard Schneider}{142}{subsection*.359}}
\newlabel{MSne}{{}{142}{\composer@canonicalname }{subsection*.359}{}}
\@writefile{toc}{\contentsline {subsection}{Werner Schrade}{142}{subsection*.360}}
\newlabel{WSra}{{}{142}{\composer@canonicalname }{subsection*.360}{}}
\@writefile{toc}{\contentsline {subsection}{John Stainer}{142}{subsection*.361}}
\newlabel{JSta}{{}{142}{\composer@canonicalname }{subsection*.361}{}}
\@writefile{toc}{\contentsline {subsection}{Heinrich Sch\IeC {\"u}tz}{143}{subsection*.362}}
\newlabel{HSut}{{}{143}{\composer@canonicalname }{subsection*.362}{}}
\@writefile{toc}{\contentsline {subsection}{Thomas Tallis}{143}{subsection*.363}}
\newlabel{TTal}{{}{143}{\composer@canonicalname }{subsection*.363}{}}
\@writefile{toc}{\contentsline {subsection}{Thomas Tomkins}{143}{subsection*.364}}
\newlabel{TTom}{{}{143}{\composer@canonicalname }{subsection*.364}{}}
\@writefile{toc}{\contentsline {subsection}{Pjotr Iljitsch Tschaikowski}{144}{subsection*.365}}
\newlabel{PTsa}{{}{144}{\composer@canonicalname }{subsection*.365}{}}
\@writefile{toc}{\contentsline {subsection}{Johann Walter}{144}{subsection*.366}}
\newlabel{JWal}{{}{144}{\composer@canonicalname }{subsection*.366}{}}
\@writefile{toc}{\contentsline {subsection}{Thomas Weelkes}{144}{subsection*.367}}
\newlabel{TWee}{{}{144}{\composer@canonicalname }{subsection*.367}{}}
\@writefile{toc}{\contentsline {subsection}{Johannes Weyrauch}{145}{subsection*.368}}
\newlabel{JWey}{{}{145}{\composer@canonicalname }{subsection*.368}{}}
\@writefile{toc}{\contentsline {subsection}{David Willcocks}{145}{subsection*.369}}
\newlabel{DWil}{{}{145}{\composer@canonicalname }{subsection*.369}{}}
\@writefile{toc}{\contentsline {subsection}{Friedrich Zipp}{145}{subsection*.370}}
\newlabel{FZip}{{}{145}{\composer@canonicalname }{subsection*.370}{}}
\@writefile{toc}{\contentsline {section}{Sprachen}{146}{section*.371}}
\@writefile{toc}{\contentsline {subsection}{Althochdeutsch}{146}{subsection*.372}}
\newlabel{Lang-goh}{{}{146}{Althochdeutsch}{subsection*.372}{}}
\@writefile{toc}{\contentsline {subsection}{Deutsch}{146}{subsection*.373}}
\newlabel{Lang-deu}{{}{146}{Deutsch}{subsection*.373}{}}
\@writefile{toc}{\contentsline {subsection}{Englisch}{149}{subsection*.374}}
\newlabel{Lang-eng}{{}{149}{Englisch}{subsection*.374}{}}
\@writefile{toc}{\contentsline {subsection}{Mittelenglisch}{149}{subsection*.375}}
\newlabel{Lang-enm}{{}{149}{Mittelenglisch}{subsection*.375}{}}
\@writefile{toc}{\contentsline {subsection}{Franz\IeC {\"o}sisch}{149}{subsection*.376}}
\newlabel{Lang-fra}{{}{149}{Französisch}{subsection*.376}{}}
\@writefile{toc}{\contentsline {subsection}{Griechisch}{150}{subsection*.377}}
\newlabel{Lang-grc}{{}{150}{Griechisch}{subsection*.377}{}}
\@writefile{toc}{\contentsline {subsection}{Hebr\IeC {\"a}isch}{150}{subsection*.378}}
\newlabel{Lang-heb}{{}{150}{Hebräisch}{subsection*.378}{}}
\@writefile{toc}{\contentsline {subsection}{Italienisch}{150}{subsection*.379}}
\newlabel{Lang-ita}{{}{150}{Italienisch}{subsection*.379}{}}
\@writefile{toc}{\contentsline {subsection}{Lateinisch}{150}{subsection*.380}}
\newlabel{Lang-lat}{{}{150}{Lateinisch}{subsection*.380}{}}
\@writefile{toc}{\contentsline {subsection}{Norwegisch}{151}{subsection*.381}}
\newlabel{Lang-nor}{{}{151}{Norwegisch}{subsection*.381}{}}
\@writefile{toc}{\contentsline {subsection}{Schwedisch}{152}{subsection*.382}}
\newlabel{Lang-swe}{{}{152}{Schwedisch}{subsection*.382}{}}
\@writefile{toc}{\contentsline {section}{Schlagworte}{153}{section*.383}}
\@writefile{toc}{\contentsline {subsection}{Abendmahl}{153}{subsection*.384}}
\@writefile{toc}{\contentsline {subsection}{Advent}{153}{subsection*.385}}
\@writefile{toc}{\contentsline {subsection}{Bibel}{153}{subsection*.386}}
\@writefile{toc}{\contentsline {subsection}{Bibelvers}{155}{subsection*.387}}
\@writefile{toc}{\contentsline {subsection}{Davidpsalm}{155}{subsection*.388}}
\@writefile{toc}{\contentsline {subsection}{EKG}{156}{subsection*.389}}
\@writefile{toc}{\contentsline {subsection}{Engel}{156}{subsection*.390}}
\@writefile{toc}{\contentsline {subsection}{Epiphanias}{156}{subsection*.391}}
\@writefile{toc}{\contentsline {subsection}{Karfreitag}{156}{subsection*.392}}
\@writefile{toc}{\contentsline {subsection}{Maria}{156}{subsection*.393}}
\@writefile{toc}{\contentsline {subsection}{Paul Gerhardt}{157}{subsection*.394}}
\@writefile{toc}{\contentsline {subsection}{Psalm}{157}{subsection*.395}}
\@writefile{toc}{\contentsline {subsection}{Reformationstag}{158}{subsection*.396}}
\@writefile{toc}{\contentsline {subsection}{Weihnacht}{159}{subsection*.397}}
\@writefile{toc}{\contentsline {subsection}{weltlich}{159}{subsection*.398}}
