Composer,ComposerID,Title,Collection,Opus,Year,Published,Language,Key,Voices,Voicing,Instruments,Genre,Epoch,Duration,Dedication,TextSource,Performed,Score,Wikidata,CPDL,IMSLP,Youtube,OriginalComposer,OriginalComposerID,Remark,Attachments,ID
Adolf Seifert,31,Der Mond ist aufgegangen,,,,,German,F-Dur,4vv,SATB,,,,,,Matthias Claudius,,http://www.melsunger-musikantengilde.de/Noten/3.%20Abendlieder/Der%20Mond.pdf,,http://www0.cpdl.org/wiki/index.php/Der_Mond_ist_aufgegangen_%28Johann_Abraham_Peter_Schulz%29,,,,,,Der%20Mond.pdf,6ab43336-5448-4b5b-9ba3-45597b147f1a
Andreas Hammerschmidt,16,Machet die Tore weit,,,,,German,G mixolydisch,6vv,SSATBB,a cappella,Motet,Baroque,,,"Psalm 24,7 / Markus 11,10",,,,http://www0.cpdl.org/wiki/index.php/Machet_die_Tore_weit_%28Andreas_Hammerschmidt%29,"http://imslp.org/wiki/Machet_die_Tore_weit_%28Hammerschmidt,_Andreas%29",,,,,,
Anton Bruckner,10,Graduale - Christus factus est,"Sämtliche Werke, Band 21",WAB 11,1884,Wien,Latin,d moll,4vv,SATB,a cappella,Graduale,Romantic,,"Sr. Hochwürden Herrn Pater Otto Loidol, Benediktiner von Kremsmünster",Philipper 2:8--9,,,,http://www1.cpdl.org/wiki/index.php/Christus_factus_est_%28Anton_Bruckner%29,,,,,,,
Anton Bruckner,10,Graduale - Locus iste,"Sämtliche Werke, Band 21",WAB 23,1869,Wien,Latin,C major,4vv,SATB,a cappella,Graduale,Romantic,,Otto Loidol,Liber Usualis,,http://jmms.lv/boyschoir/notis/viewer/?file=../up/bruckner_-_locus_iste_4.pdf,,http://www3.cpdl.org/wiki/index.php/Locus_iste_%28Anton_Bruckner%29,"http://imslp.org/wiki/Locus_iste,_WAB_23_%28Bruckner,_Anton%29",,,,,bruckner_-_locus_iste_4.pdf,403172c4-4534-49af-a6eb-4d33f8fae6db
Claudio Monteverdi,53,Domine ad adiuvandum,Vespro della Beata Vergine,"SV 206, I",1610,"Sanctissimae Virgini Missa senis vocibus, Venedig",Latin,D-Dur,6vv,SSATTB,"2 Cornette, 3 Posaunen, Streicher, Continuo",Vesper,Baroque,,Camillo Borghese (Paul V.),{{Bibel|Ps|70|1}},,,,http://www2.cpdl.org/wiki/index.php/Vespro_della_Beata_Vergine_%28Claudio_Monteverdi%29,"http://imslp.org/wiki/Vespro_della_Beata_Vergine,_SV_206_%28Monteverdi,_Claudio%29",,,,,,
Claudio Monteverdi,53,Dixit Dominus,Vespro della Beata Vergine,"SV 206, II",1610,"Sanctissimae Virgini Missa senis vocibus, Venedig",Latin,a-moll,6vv,SSATTB,"6 Instrumente, Continuo",Vesper,Baroque,,Camillo Borghese (Paul V.),{{Bibel|Ps|110|}},,,,http://www2.cpdl.org/wiki/index.php/Vespro_della_Beata_Vergine_%28Claudio_Monteverdi%29,"http://imslp.org/wiki/Vespro_della_Beata_Vergine,_SV_206_%28Monteverdi,_Claudio%29",,,,,,
Claudio Monteverdi,53,Laudate Pueri Dominum,Vespro della Beata Vergine,"SV 206, IV",1610,"Sanctissimae Virgini Missa senis vocibus, Venedig",Latin,G mixolydisch,8vv,SSAATTBB,Orgel,Vesper,Baroque,,Camillo Borghese (Paul V.),{{Bibel|Ps|112}},,,,http://www2.cpdl.org/wiki/index.php/Vespro_della_Beata_Vergine_%28Claudio_Monteverdi%29,"http://imslp.org/wiki/Vespro_della_Beata_Vergine,_SV_206_%28Monteverdi,_Claudio%29",,,,,,
Claudio Monteverdi,53,Laetatus sum,Vespro della Beata Vergine,"SV 206, VI",1610,"Sanctissimae Virgini Missa senis vocibus, Venedig",Latin,F-Dur,6vv,SSATTB,Continuo,Vesper,Baroque,,Camillo Borghese (Paul V.),{{Bibel|Ps|122}},,,,http://www2.cpdl.org/wiki/index.php/Vespro_della_Beata_Vergine_%28Claudio_Monteverdi%29,"http://imslp.org/wiki/Vespro_della_Beata_Vergine,_SV_206_%28Monteverdi,_Claudio%29",,,,,,
Claudio Monteverdi,53,Nisi Dominus,Vespro della Beata Vergine,"SV 206, VIII",1610,"Sanctissimae Virgini Missa senis vocibus, Venedig",Latin,F-Dur,10vv,SATB.TT.SATB,gemischtes Ensemble,Vesper,Baroque,,Camillo Borghese (Paul V.),{{Bibel|Ps|127}},,,,http://www2.cpdl.org/wiki/index.php/Vespro_della_Beata_Vergine_%28Claudio_Monteverdi%29,"http://imslp.org/wiki/Vespro_della_Beata_Vergine,_SV_206_%28Monteverdi,_Claudio%29",,,,,,
Claudio Monteverdi,53,Lauda Jerusalemn,Vespro della Beata Vergine,"SV 206, X",1610,"Sanctissimae Virgini Missa senis vocibus, Venedig",Latin,B-Dur,7vv,SAB.T.SAB,gemischtes Ensemble,Vesper,Baroque,,Camillo Borghese (Paul V.),{{Bibel|Ps|147}},,,,http://www2.cpdl.org/wiki/index.php/Vespro_della_Beata_Vergine_%28Claudio_Monteverdi%29,"http://imslp.org/wiki/Vespro_della_Beata_Vergine,_SV_206_%28Monteverdi,_Claudio%29",,,,,,
Claudio Monteverdi,53,"Sonata sopra ""Sancta Maria""",Vespro della Beata Vergine,"SV 206, XI",1610,"Sanctissimae Virgini Missa senis vocibus, Venedig",Latin,G mixolydisch,1v,S,gemischtes Ensemble,Vesper,Baroque,,Camillo Borghese (Paul V.),Ave Maria,,,,http://www2.cpdl.org/wiki/index.php/Vespro_della_Beata_Vergine_%28Claudio_Monteverdi%29,"http://imslp.org/wiki/Vespro_della_Beata_Vergine,_SV_206_%28Monteverdi,_Claudio%29",,,,,,
Claudio Monteverdi,53,Hymnus: Ave maris stella,Vespro della Beata Vergine,"SV 206, XII",1610,"Sanctissimae Virgini Missa senis vocibus, Venedig",Latin,D-Dur,8vv,SSAATTBB,gemischtes Ensemble,Vesper,Baroque,,Camillo Borghese (Paul V.),,,,,http://www2.cpdl.org/wiki/index.php/Vespro_della_Beata_Vergine_%28Claudio_Monteverdi%29,"http://imslp.org/wiki/Vespro_della_Beata_Vergine,_SV_206_%28Monteverdi,_Claudio%29",,,,,,
Claudio Monteverdi,53,Magnificat,Vespro della Beata Vergine,"SV 206, XIII",1610,"Sanctissimae Virgini Missa senis vocibus, Venedig",Latin,G-lydisch,7vv,SSATTBB,6 Instrumente,Vesper,Baroque,,Camillo Borghese (Paul V.),,,,,http://www2.cpdl.org/wiki/index.php/Vespro_della_Beata_Vergine_%28Claudio_Monteverdi%29,"http://imslp.org/wiki/Vespro_della_Beata_Vergine,_SV_206_%28Monteverdi,_Claudio%29",,,,,,
Claudio Monteverdi,,Cantate Domino,Libro primo de Motetti,SV 293,1620,,Latin,,,SSATTB,,,,,,,2018-10-31,,,,,,,,,,
Egile Hovland,18,"Hør, himlens gledessang",Korsanger og viser med og uten instrument,Op. 126,1985,,Norwegian,F-Dur,3vv,SSA,a cappella,carol,Modern,,,Svein Ellingsen,,,,,,,,,,,
Engelbert Humperdinck,63,Abendsegen,Hänsel und Gretel,EHWV 93.1,1893,Weimar,German,C-Dur,4vv,SATB,a cappella,Lied,Romantic,,,Des Knaben Wunderhorn,,,,,,,,,,,
Felix Mendelssohn,3,Weihnachten,Sechs Sprüche zum Kirchenjahr,"MWV B 42, Op. 79, Nr. 1",1845,,German,G-Dur,8vv,SSAATTBB,a cappella,Motet,Romantic,,Für den Domchor zu Berlin,"Psalm 47, 2",,,,"http://www3.cpdl.org/wiki/index.php/Weihnachten,_Op._79,_No._1_%28Felix_Mendelssohn%29","http://imslp.org/wiki/6_Motets,_Op.79_%28Mendelssohn,_Felix%29",,,,,,
Felix Mendelssohn Bartholdy,3,Mitten wir im Leben sind,Kirchenmusik,"MWV B 21 (op. 23, Nr. 3)",1830,,German,c-moll,8vv,SSAATTBB,a cappella,Chorale,Romantic,,,Martin Luther,,,,"http://www2.cpdl.org/wiki/index.php/Mitten_wir_im_Leben_sind,_Op._23,_No._3_%28Felix_Mendelssohn%29","http://imslp.org/wiki/Kirchenmusik,_Op.23_%28Mendelssohn,_Felix%29",,,,,,
Franz Biebl,44,Ave Maria (Angelus Domini),Chanticleer Choral Series,,1964,Dortmund,latin,B-Dur,7vv,SATB.SAT,,,Romantic,,,"Antonio Michele Ghislieri (Pius V.), 1571",,http://web.mit.edu/~21m.445/www/F11/biebl/pdf/ave-maria-biebl-3.pdf,,,,,,,,ave-maria-biebl-3.pdf,98891309-f213-4554-899f-55319062967b
Friedrich Silcher,64,Schau hin nach Golgatha,,Op. 9 Nr. 4,,,German,c-moll,4vv,SATB,a cappella,Motet,Romantik,,,unbekannt,,,,--,--,,,,,,
Giacomo Puccini,44,Kyrie,Messa di Gloria,,1880,,Greek,As-Dur,4vv,SATB,"Soli, Chor und Orchester",Mass,Romantic,,,,,,,http://www2.cpdl.org/wiki/index.php/Messa_di_Gloria_%28Giacomo_Puccini%29,"http://imslp.org/wiki/Messa_di_Gloria_%28Puccini,_Giacomo%29",,,,,,
Giacomo Puccini,44,Gloria,Messa di Gloria,,1880,,Latin,C-Dur,4vv,SATB,"Soli, Chor und Orchester",Mass,Romantic,,,,,,,http://www2.cpdl.org/wiki/index.php/Messa_di_Gloria_%28Giacomo_Puccini%29,"http://imslp.org/wiki/Messa_di_Gloria_%28Puccini,_Giacomo%29",,,,,,
Giacomo Puccini,44,Credo,Messa di Gloria,,1880,,Latin,C-moll,4vv,SATB,"Soli, Chor und Orchester",Mass,Romantic,,,,,,,http://www2.cpdl.org/wiki/index.php/Messa_di_Gloria_%28Giacomo_Puccini%29,"http://imslp.org/wiki/Messa_di_Gloria_%28Puccini,_Giacomo%29",,,,,,
Giacomo Puccini,44,Sactus e Benedictus,Messa di Gloria,,1880,,Latin,G-Dur,4vv,SATB,"Soli, Chor und Orchester",Mass,Romantic,,,,,,,http://www2.cpdl.org/wiki/index.php/Messa_di_Gloria_%28Giacomo_Puccini%29,"http://imslp.org/wiki/Messa_di_Gloria_%28Puccini,_Giacomo%29",,,,,,
Giacomo Puccini,44,Agnus Dei,Messa di Gloria,,1880,,Latin,C-Dur,4vv,SATB,"Soli, Chor und Orchester",Mass,Romantic,,,,,,,http://www2.cpdl.org/wiki/index.php/Messa_di_Gloria_%28Giacomo_Puccini%29,"http://imslp.org/wiki/Messa_di_Gloria_%28Puccini,_Giacomo%29",,,,,,
Günther Raphael,17,Kyrie eleison,,,--,,german,b-moll,5vv,SATTBB,a cappella,,modern,,,"Haxthausen, Bocholtz-Asseburg - Sammlung geistlicher Lieder",,,,--,--,,,,,,
Hans Leo Haßler,60,Dixit Maria ad Angelum,Cantiones sacrae 7,,1591,Augsburg,latin,F-Dur,4vv,SATB,a cappella,Motet,Renaissance,,,{{Bibel|Lk|1|38}},,,,http://www0.cpdl.org/wiki/index.php/Dixit_Maria_%28Hans_Leo_Hassler%29,"http://imslp.org/wiki/Dixit_Maria_ad_angelum_%28Hassler,_Hans_Leo%29",,,,,,
Heinrich Schütz,8,Der 2. Psalm -- Warum toben die Heiden,Psalmen Davids sampt etlichen Moteten und Concerten,"Op. 2 Nr. 2, SWV 23",1619,Dresden,german,F-Dur,16vv,SATB.SATB.SATB.SATB,Basso continuo,Motet,Baroque,,,Psalm 2,,,,"http://www0.cpdl.org/wiki/index.php/Warum_toben_die_Heiden_(Psalm_2),_SWV_23_(Heinrich_Sch%C3%BCtz)","http://imslp.org/wiki/Psalmen_Davids_sampt_etlichen_Moteten_und_Concerten,_Op.2_%28Sch%C3%BCtz,_Heinrich%29",,,,,,
Johann Christian Bach,1,Missa da Requiem,,Warb CW E 1,,,Latin,,8vv,SATB.SATB,Orchester,,Classical,,,Konzil von Trient,,,,--,--,,,,,,
Johann Sebastian Bach,14,Aus der Tiefen rufe ich Herr zu dir,,BWV 131,1707,Mühlhausen,German,g-moll,4vv,SATB,"Oboe, Violine, 2 Violas, Fagott, Cello/Bass",Cantate,Baroque,,,{{Bibel|Ps|130}},,,,http://www0.cpdl.org/wiki/index.php/Cantata_BWV_131_-_Aus_der_Tiefe_ruf_ich_Herr_zu_dir_%28Johann_Sebastian_Bach%29,"http://imslp.org/wiki/Aus_der_Tiefe_rufe_ich,_Herr,_zu_dir,_BWV_131_%28Bach,_Johann_Sebastian%29",,,,,,
Johann Sebastian Bach,14,"Fürchte dich nicht, ich bin bei dir",,BWV 228,1726,,German,A-Dur,8vv,SATB.SATB,a cappella,Motet,Baroque,,,"{{Bibel|Jes|41|10}}, {{Bibel|Jes|43|1}}",,,,http://www0.cpdl.org/wiki/index.php/F%C3%BCrchte_dich_nicht_%28BWV_228%29_%28Johann_Sebastian_Bach%29,"http://imslp.org/wiki/F%C3%BCrchte_dich_nicht,_ich_bin_bei_dir,_BWV_228_%28Bach,_Johann_Sebastian%29",,,,,,
Johann Sebastian Bach,14,"Jesu, meine Freude",,BWV 227,1723,,German,e-moll,5vv,SSATB,a cappella,Motet,Baroque,,,"Johann Franck, {{Bibel|Röm|8|1,2,9-11}}",,,Q892166,"http://www3.cpdl.org/wiki/index.php/Jesu,_meine_Freude,_BWV_227_%28Johann_Sebastian_Bach%29","http://imslp.org/wiki/Jesu,_meine_Freude,_BWV_227_%28Bach,_Johann_Sebastian%29",,,,,,
Johann Sebastian Bach,14,Johannespassion,Johannespassion,BWV 245,1724,Leipzig,deutsch,,,,,,Baroque,,,"Joh. 18, 19",,,,"http://www3.cpdl.org/wiki/index.php/Johannespassion,_BWV_245_%28Johann_Sebastian_Bach%29#1._Herr.2C_unser_Herrscher_.28Chorus.29",,,,,,,
Johann Sebastian Bach,14,"Weihnachtsoratorium Teil I: Jauchzet, frohlocket",Weihnachtsoratorium,BWV 248,1734,Leipzig,German,D major,4vv,"SATB, Soli",Orchester,Oratorium,Baroque,,,Christian Friedrich Henrici,,,,"http://www0.cpdl.org/wiki/index.php/Christmas_Oratorio,_BWV_248_%28Johann_Sebastian_Bach%29","http://imslp.org/wiki/Weihnachts-Oratorium,_BWV_248_%28Bach,_Johann_Sebastian%29",,,,,,
Johann Sebastian Bach,14,Weihnachtsoratorium Teil II: Und es waren Hirten,Weihnachtsoratorium,BWV 248,1734,Leipzig,German,G major,4vv,"SATB, Soli",Orchester,Oratorium,Baroque,,,Christian Friedrich Henrici,,,,"http://www0.cpdl.org/wiki/index.php/Christmas_Oratorio,_BWV_248_%28Johann_Sebastian_Bach%29","http://imslp.org/wiki/Weihnachts-Oratorium,_BWV_248_%28Bach,_Johann_Sebastian%29",,,,,,
Johann Sebastian Bach,14,Weihnachtsoratorium Teil III: Herrscher des Himmels,Weihnachtsoratorium,BWV 248,1734,Leipzig,German,D major,4vv,"SATB, Soli",Orchester,Oratorium,Baroque,,,Christian Friedrich Henrici,,,,"http://www0.cpdl.org/wiki/index.php/Christmas_Oratorio,_BWV_248_%28Johann_Sebastian_Bach%29","http://imslp.org/wiki/Weihnachts-Oratorium,_BWV_248_%28Bach,_Johann_Sebastian%29",,,,,,
Johann Sebastian Bach,14,"Weihnachtsoratorium Teil IV: Fallt mit Danken, fallt mit Loben",Weihnachtsoratorium,BWV 248,1734,Leipzig,German,F major,4vv,"SATB, Soli",Orchester,Oratorium,Baroque,,,Christian Friedrich Henrici,,,,"http://www0.cpdl.org/wiki/index.php/Christmas_Oratorio,_BWV_248_%28Johann_Sebastian_Bach%29","http://imslp.org/wiki/Weihnachts-Oratorium,_BWV_248_%28Bach,_Johann_Sebastian%29",,,,,,
Johann Sebastian Bach,14,"Weihnachtsoratorium Teil V: Ehre sei dir, Gott, gesungen",Weihnachtsoratorium,BWV 248,1734,Leipzig,German,A major,4vv,"SATB, Soli",Orchester,Oratorium,Baroque,,,Christian Friedrich Henrici,,,,"http://www0.cpdl.org/wiki/index.php/Christmas_Oratorio,_BWV_248_%28Johann_Sebastian_Bach%29","http://imslp.org/wiki/Weihnachts-Oratorium,_BWV_248_%28Bach,_Johann_Sebastian%29",,,,,,
Johann Sebastian Bach,14,"Weihnachtsoratorium Teil VI: Herr, wenn die stolzen Feinde schnauben",Weihnachtsoratorium,BWV 248,1734,Leipzig,German,D major,4vv,"SATB, Soli",Orchester,Oratorium,Baroque,,,Christian Friedrich Henrici,,,,"http://www0.cpdl.org/wiki/index.php/Christmas_Oratorio,_BWV_248_%28Johann_Sebastian_Bach%29","http://imslp.org/wiki/Weihnachts-Oratorium,_BWV_248_%28Bach,_Johann_Sebastian%29",,,,,,
Johannes Brahms,26,"I. Selig sind, die da Leid tragen",Ein Deutsches Requiem,"Op. 45, Nr. 1",1868,Leipzig,german,,4vv,"SATB, Soli",,,Romantic,,,"Bibel, Luther-Übersetzung",,,,http://www3.cpdl.org/wiki/index.php/German_Requiem_%28Johannes_Brahms%29,"http://imslp.org/wiki/Ein_deutsches_Requiem,_Op.45_%28Brahms,_Johannes%29",,,,,,
Johannes Brahms,26,II. Denn alles Fleisch ist wie Gras,Ein Deutsches Requiem,"Op. 45, Nr. 2",1868,Leipzig,german,,4vv,"SATB, Soli",,,Romantic,,,"Bibel, Luther-Übersetzung",,,,http://www3.cpdl.org/wiki/index.php/German_Requiem_%28Johannes_Brahms%29,"http://imslp.org/wiki/Ein_deutsches_Requiem,_Op.45_%28Brahms,_Johannes%29",,,,,,
Johannes Brahms,26,"III. Herr, lehre doch mich",Ein Deutsches Requiem,"Op. 45, Nr. 3",1868,Leipzig,german,,4vv,"SATB, Soli",,,Romantic,,,"Bibel, Luther-Übersetzung",,,,http://www3.cpdl.org/wiki/index.php/German_Requiem_%28Johannes_Brahms%29,"http://imslp.org/wiki/Ein_deutsches_Requiem,_Op.45_%28Brahms,_Johannes%29",,,,,,
Johannes Brahms,26,IV. Wie lieblich sind deine Wohnungen,Ein Deutsches Requiem,"Op. 45, Nr. 4",1868,Leipzig,german,c minor,4vv,"SATB, Soli",,,Romantic,,,"Bibel, Luther-Übersetzung",,,,http://www3.cpdl.org/wiki/index.php/German_Requiem_%28Johannes_Brahms%29,"http://imslp.org/wiki/Ein_deutsches_Requiem,_Op.45_%28Brahms,_Johannes%29",,,,,,
Johannes Brahms,26,V. Ihr habt nun Traurigkeit,Ein Deutsches Requiem,"Op. 45, Nr. 5",1868,Leipzig,german,d minor,4vv,"SATB, Soli",,,Romantic,,,"Bibel, Luther-Übersetzung",,,,http://www3.cpdl.org/wiki/index.php/German_Requiem_%28Johannes_Brahms%29,"http://imslp.org/wiki/Ein_deutsches_Requiem,_Op.45_%28Brahms,_Johannes%29",,,,,,
Johannes Brahms,26,VI. Denn wir haben hie keine bleibende Statt,Ein Deutsches Requiem,"Op. 45, Nr. 6",1868,Leipzig,german,d minor,4vv,"SATB, Soli",,,Romantic,,,"Bibel, Luther-Übersetzung",,,,http://www3.cpdl.org/wiki/index.php/German_Requiem_%28Johannes_Brahms%29,"http://imslp.org/wiki/Ein_deutsches_Requiem,_Op.45_%28Brahms,_Johannes%29",,,,,,
Johannes Brahms,26,VII. Selig sind die Toten,Ein Deutsches Requiem,"Op. 45, Nr. 7",1868,Leipzig,german,d minor,4vv,"SATB, Soli",,,Romantic,,,"Bibel, Luther-Übersetzung",,,,http://www3.cpdl.org/wiki/index.php/German_Requiem_%28Johannes_Brahms%29,"http://imslp.org/wiki/Ein_deutsches_Requiem,_Op.45_%28Brahms,_Johannes%29",,,,,,
Johannes Brahms,26,Schnitter Tod,"14 Deutsche Volkslieder, Nr. 6","WoO 34, Nr. 13",1864,,German,G minor,4vv,SATB,a cappella,Lied,Romantic,,Vienna Singacademie,traditionell,,,,--,"http://imslp.org/wiki/14_Deutsche_Volkslieder,_WoO_34_%28Brahms,_Johannes%29",,,,,,
Johannes Matthias Michel,61,Cantate Domino,"Das Swing- und Jazz-Chorbuch, Band 2",,2000,,Latin,G-Dur,4vv,SATB,a cappella,Motet,Jazz,,,"Psalm 97; 1, 5 (Vulgata)",,,,,,,,,,,
Knut Nystedt,5,"I Will Praise Thee, O Lord",No. 3 of Three motets for mixed choir,Op. 43 Nr. 3,1957,Oslo,english,,4vv,SATB,a cappella,Motet,Modern,,,Psalm 9; 1-2,,,,,,,,,,,
Knut Nystedt,5,Kyrie,A Thanksgiving Mass,,1972,,Greek,a minor,7vv,SSA.SATB,a cappella,Mass,Modern,,,Ordinarium,,,,--,--,https://www.youtube.com/watch?v=t1ZufhdQ9Nk,,,,,
Knut Nystedt,5,Peace I Leave  With You,No. 2 of Three motets for mixed choir,Op. 43 Nr. 2,1957,Oslo,English,,4vv,SATB,a cappella,Motet,Modern,,,{{Bibel|Joh|14|27}},,,,,,,,,,,
Knut Nystedt,5,Immortal Bach,,Op. 153b,1997,Oslo,german,c-moll,20vv,SATB.SATB.SATB.SATB.SATB,a cappella,Motet,Modern,,,unbekannter Verfasser um 1724,,,,,,,,,,,
Knut Nystedt,,Laudate,,,1990,,Latin,,,SATB,,,,,,,,,,,,,,,,,
Leonard Bernstein,15,Chichester Psalms,,,1965,,hebrew,,4vv,SATB,"Trompeten, Posaunen, Pauken, Schlagzeug, Harfen, Streicher",,modern,,"Commissioned by the Very Rev. Walter Hussey, Dean of Chichester Cathedral, Sussex, for its 1965 Festival, and dedicated, with gratitude, to Cyril Solomon",,,,,,,,,,,,
Maurice Duruflé,7,Notre Père,,,,,french,F-Dur,4vv,SATB,a cappella,,,,à ma femme,,,,,,,,,,,,
Maurice Duruflé,7,Ubi caritas,Quatre motets sur des thèmes grégoriens,"Op. 10, Nr. 1",1960,,Latin,Es major,7vv,SAATTBB,a cappella,Motet,Modern,,,"Graduale Triplex, S. 168",,,,http://www0.cpdl.org/wiki/index.php/Ubi_caritas,,,,,,,
Maurice Duruflé,7,Tu es Petrus,Quatre motets sur des thèmes grégoriens,"Op. 10, Nr. 3",1960,,Latin,G mixolydian,7vv,SAATTBB,a cappella,Motet,Modern,,,"Mathäus 16, 18-19",,http://www.ugr.es/~bjanssen/partituras/Durufle-TuEsPetrus.pdf,,http://www0.cpdl.org/wiki/index.php/Tu_es_Petrus,,,,,,Durufle-TuEsPetrus.pdf,8181766f-e8a4-49af-b150-86dff398c9ce
Max Reger,25,Der Mensch lebt und bestehet,,,,,,,,,,,,,,,,,,,,,,,,,
Max Reger,25,Nachtlied,Acht Geistliche Gesänge,op. 138 Nr. 3,1914,Meiningen,German,D major,5vv,SATBB,a cappella,Song,Romantic,,,"Petrus Herbert, 1566",,,,"http://www3.cpdl.org/wiki/index.php/Nachtlied,_Op._138,_No._3_%28Max_Reger%29","http://imslp.org/wiki/8_Geistliche_Ges%C3%A4nge,_Op.138_%28Reger,_Max%29",,,,,,
Michael Prätorius/Jan Sandström,57,Det är en ros utsprungen,,,1987,,swedish,F-Dur,8vv,SATB.SSAATTBB,a cappella,Carol,Modern,,,"Alte Catholische Geistliche Kirchengesänge (Köln, 1599)",,,,,,,Michael Praetorius,22,,,
Moritz Hauptmann,6,"Salvum fac regem, Domine",,op. 9,,,Latin,c-moll,4vv,SATB,a cappella,,Romantic,,,,,,,,,,,,,,
Ola Gjeilo,,Ubi Caritas,,,2007,,Latin,gjeiloo-ubicaritas,,SATB,,,Modern,3 min.,to Lone Larsen and Voces Nordicae,,2018-10-31,,,,,,,,,,
Clytus Gottwald,21,Die Könige,Weihnachtslieder,Op. 8,2011,,German,G major,4vv+3,SATB.ATB,,Motet,Modern,,,"Peter Cornelius/Philipp Nicolai, 1599",,,,--,--,,Peter Cornelius,,,,
Rudolf Mauersberger,2,Wie liegt die Stadt so wüst,Zyklus Dresden,RMWV 4/1,1945-03-30,Dresden,German,f-Moll,7vv,,a cappella,Motette,Modern,,,Klagelieder Jeremias,,,Q2568133,,,,,,,,
Thomas Tomkins,47,It is my well-beloved's voice,,,,,English,,6vv,SATTB,a cappella,Anthem,,,To Mr. Doctor Ailmer,{{Bibel|Hld|2|8}},,,,http://www2.cpdl.org/wiki/index.php/It_is_my_well-beloved's_voice_%28Thomas_Tomkins%29,,,,,,,
Waldemar Åhlén,40,Sommarpsalm,,,,,swedish,A-Dur,4vv,SATB,,,,,,Carl David af Wirsén,,,,,,,,,,,
Wolfgang Amadeus Mozart,54,V'amo di core,,KV 348,1782,,Italian,G-Dur,12vv,SATB.SATB.SATB,a cappella,Kanon,Classical,,,,,,,http://www0.cpdl.org/wiki/index.php/V'amo_di_core_%28Wolfgang_Amadeus_Mozart%29,,,,,,,
Wolfram Buchenberg,58,Von 55 Engeln behütet,,,2008,,althochdeutsch,F lydian,6vv,SSATBB,a cappella,Motet,modern,,,Weingartner Reisesegen,,,,,,https://www.youtube.com/watch?v=3Pm3f6xe4j4,,,,,
Joachim Neander,,Tut mir auf die schöne Pforte,,EKG 166,1734,,German,,,SAAATB,,,Modern,,,,2018-10-31,,,,,,,,Rock-Version 2008,,
Heike Kiefner-Jesatko,,"Nun geh uns auf, du Morgenstern",,EKG 585,2018,,German,,,SATB,,,,,,,2018-10-31,,,,,,,,,,
Werner Schrade,,Ein feste Burg ist unser Gott,,,1968,,German,,,SATB,,,,,,,,,,,,,,,,,
